{
    "openapi": "3.0.0",
    "info": {
        "title": "API Tutorial",
        "version": "0.1"
    },
    "servers": [
        {
            "url": "http://symfony-test.loc",
            "description": "Api"
        }
    ],
    "paths": {
        "/news": {
            "get": {
                "operationId": "App\\Controller\\NewsController::postNews",
                "responses": {
                    "200": {
                        "description": "Test",
                        "content": {
                            "application/json": {
                                "schema": {
                                    "description": "Title",
                                    "type": "string"
                                }
                            }
                        }
                    }
                }
            }
        }
    }
}